[0907/114038.359:ERROR:process_reader_win.cc(123)] NtOpenThread: {Toegang geweigerd} Een proces heeft toegang tot een object aangevraagd, maar heeft deze toegangsrechten niet gekregen. (0xc0000022)
[0907/114038.361:ERROR:exception_snapshot_win.cc(99)] thread ID 19292 not found in process
[0907/114038.380:ERROR:process_reader_win.cc(123)] NtOpenThread: {Toegang geweigerd} Een proces heeft toegang tot een object aangevraagd, maar heeft deze toegangsrechten niet gekregen. (0xc0000022)
[0907/114038.380:ERROR:exception_snapshot_win.cc(99)] thread ID 6172 not found in process
[0916/152304.355:ERROR:process_reader_win.cc(123)] NtOpenThread: {Toegang geweigerd} Een proces heeft toegang tot een object aangevraagd, maar heeft deze toegangsrechten niet gekregen. (0xc0000022)
[0916/152304.356:ERROR:exception_snapshot_win.cc(99)] thread ID 21532 not found in process
[0916/152304.460:ERROR:process_reader_win.cc(123)] NtOpenThread: {Toegang geweigerd} Een proces heeft toegang tot een object aangevraagd, maar heeft deze toegangsrechten niet gekregen. (0xc0000022)
[0916/152304.460:ERROR:exception_snapshot_win.cc(99)] thread ID 15248 not found in process
[0916/155127.966:ERROR:process_reader_win.cc(123)] NtOpenThread: {Toegang geweigerd} Een proces heeft toegang tot een object aangevraagd, maar heeft deze toegangsrechten niet gekregen. (0xc0000022)
[0916/155127.968:ERROR:exception_snapshot_win.cc(99)] thread ID 16604 not found in process
[0916/155127.999:ERROR:process_reader_win.cc(123)] NtOpenThread: {Toegang geweigerd} Een proces heeft toegang tot een object aangevraagd, maar heeft deze toegangsrechten niet gekregen. (0xc0000022)
[0916/155128.000:ERROR:exception_snapshot_win.cc(99)] thread ID 272 not found in process
[0918/120147.836:ERROR:process_reader_win.cc(123)] NtOpenThread: {Toegang geweigerd} Een proces heeft toegang tot een object aangevraagd, maar heeft deze toegangsrechten niet gekregen. (0xc0000022)
[0918/120147.841:ERROR:exception_snapshot_win.cc(99)] thread ID 25284 not found in process
[0918/120147.862:ERROR:process_reader_win.cc(123)] NtOpenThread: {Toegang geweigerd} Een proces heeft toegang tot een object aangevraagd, maar heeft deze toegangsrechten niet gekregen. (0xc0000022)
[0918/120147.862:ERROR:exception_snapshot_win.cc(99)] thread ID 23628 not found in process
[0918/141838.633:ERROR:process_reader_win.cc(123)] NtOpenThread: {Toegang geweigerd} Een proces heeft toegang tot een object aangevraagd, maar heeft deze toegangsrechten niet gekregen. (0xc0000022)
[0918/141838.639:ERROR:exception_snapshot_win.cc(99)] thread ID 6644 not found in process
[0918/141838.688:ERROR:process_reader_win.cc(123)] NtOpenThread: {Toegang geweigerd} Een proces heeft toegang tot een object aangevraagd, maar heeft deze toegangsrechten niet gekregen. (0xc0000022)
[0918/141838.689:ERROR:exception_snapshot_win.cc(99)] thread ID 20204 not found in process
